<?xml version="1.0" standalone="no"?>
<!DOCTYPE svg PUBLIC "-//W3C//DTD SVG 20010904//EN"
 "http://www.w3.org/TR/2001/REC-SVG-20010904/DTD/svg10.dtd">
<svg version="1.0" xmlns="http://www.w3.org/2000/svg"
 width="100.000000pt" height="100.000000pt" viewBox="0 0 100.000000 100.000000"
 preserveAspectRatio="xMidYMid meet">
<metadata>
Created by potrace 1.11, written by Peter Selinger 2001-2013
</metadata>
<g transform="translate(0.000000,100.000000) scale(0.100000,-0.100000)"
fill="#000000" stroke="none">
<path d="M424 746 c-36 -16 -79 -68 -89 -108 -6 -24 -10 -26 -40 -21 -43 7
-92 -22 -107 -63 -8 -24 -19 -34 -41 -38 -35 -7 -93 -63 -103 -99 -17 -68 28
-148 94 -168 22 -6 98 -9 189 -7 l152 3 3 -40 c2 -28 8 -40 18 -40 10 0 16 12
18 40 l3 40 166 -2 c179 -3 202 2 242 53 45 58 35 141 -23 192 -22 19 -35 41
-39 66 -11 71 -57 115 -126 123 -24 3 -51 -1 -70 -11 -17 -9 -31 -12 -31 -7 0
19 -54 72 -87 86 -44 18 -88 18 -129 1z"/>
</g>
</svg>
